{
    "$schema": "https://themost-framework.github.io/themost/models/2018/2/schema.json",
    "@id": "https://universis.io/schemas/DepartmentDocumentNumberSeries",
    "inherits": "DocumentNumberSeries",
    "title": "Document numbering configuration for departments",
    "name": "DepartmentDocumentNumberSeries",
    "version": "1.1",
    "classPath": "./models/DepartmentDocumentNumberSeries",
    "fields": [
        {
            "name": "department",
            "title": "Department",
            "description": "An academic department is a specialized division of a university or school faculty",
            "type": "LocalDepartment",
            "nullable": false,
            "editable": false
        }
    ],
    "privileges": [
        {
            "mask": 15,
            "type": "global"
        },
        {
            "mask": 15,
            "type": "global",
            "account": "Administrators"
        }
    ]
}