{
    "$schema": "https://themost-framework.github.io/themost/models/2018/2/schema.json",
    "inherits": "Attachment",
    "title": "A collection of items, typically documents that belongs to a parent document number series",
    "name": "DocumentNumberSeriesItem",
    "version": "1.4",
    "classPath": "./models/DocumentNumberSeriesItem",
    "fields": [
        {
            "name": "parentDocumentSeries",
            "description": "The parent document number series where this item belongs",
            "type": "DocumentNumberSeries",
            "nullable": false,
            "many": false
        },
        {
            "name": "documentNumber",
            "description": "A string which represents the document number taken from the parent document series",
            "type": "Text",
            "nullable": false
        },
        {
            "@id": "https://themost.io/schemas/documentCode",
            "name": "documentCode",
            "title": "documentCode",
            "description": "A sequence of alphanumeric characters which represents a random code associated with this document.",
            "type": "Text",
            "value":"javascript:return this.model.convert(this.target).newCode();"
        },
        {
            "name": "documentStatus",
            "description": "Defines the status of a document e.g. created, processing, archived etc.",
            "type": "DocumentStatusType",
            "value": "javascript:return { alternateName: 'CreatedDocumentStatus' }"
        },
        {
            "name": "signed",
            "description": "Indicates whether a document is digitally signed or not",
            "type": "Boolean",
            "value": "javascript:return false;"
        },
        {
            "name": "isBasedOn",
            "title": "Based on",
            "description": "A template from which this document is derived.",
            "type": "ReportTemplate"
        }
    ],
    "eventListeners": [
        {
            "type": "@themost/data/previous-state-listener"
        },
        {
            "type": "./listeners/update-document-published-listener"
        },
        {
            "type": "./listeners/attach-request-document-listener"
        }
    ],
    "privileges": [
        {
            "mask": 15,
            "type": "global"
        },
        {
            "mask": 15,
            "type": "global",
            "account": "Administrators"
        }
    ]

}